{
    "hooks": [
        {
            "name": "app.TysonsHook",
            "script": "./cartridge/scripts/hooks/TysonsHook.js"
        },
        {
            "name": "app.CreateProduct",
            "script": "./cartridge/scripts/hooks/CreateProduct.js"
        },
        {
            "name":"app.jobExHook",
            "script":"./cartridge/scripts/hooks/jobExHook.js"
        }
    ]
}