{
    "name": "Storefront Page",
    "description": "A Storefront Page Type Exercise1",
    "attribute_definition_groups": [{
            "id": "printcontentstring",
            "name": "Print Content String",
            "description": "Print content string",
            "attribute_definitions": [{
                    "id": "contentstring",
                    "name": "Content String",
                    "description": "Content String",
                    "type": "url",
                    "required": false
                },
                {
                    "id": "imageUpload",
                    "name": "ImageUploadEx",
                    "description": "Image",
                    "type": "image",
                    "required": false

                }
            ]
        },
        {
            "id": "imageattrEx",
            "name": "Show IMG OnPoint",
            "description": "OnPoint IMG Show",
            "attribute_definitions": [{
                "id": "imageattr",
                "name": "Image Attribute",
                "description": "Image Attribute",
                "type": "image",
                "required": false

            }]
        }
    ],
    "region_definitions": [{
            "id": "mainContent",
            "name": "Main Region"
        },
        {
            "id": "secondContent",
            "name": "Second Region"
        },
        {
            "id": "thirdContent",
            "name": "Third Region"
        }
    ]
}